<?xml version="1.0" encoding="UTF-8"?>
<svg id="Ebene_1" data-name="Ebene 1" xmlns="http://www.w3.org/2000/svg" viewBox="0 0 595.28 287">
  <defs>
    <style>
      .cls-1 {
        fill: #fff;
        stroke-width: 0px;
      }
    </style>
  </defs>
  <path class="cls-1" d="M436.18,228v-53.29c0-3.12-2.55-5.67-5.67-5.67h-49.6c-3.12,0-5.67,2.55-5.67,5.67v41.67c12.93,8.34,28.3,13.21,44.79,13.21,5.52,0,10.92-.55,16.15-1.59Z"/>
  <path class="cls-1" d="M501.57,217.45c16.45-18.95,26.43-43.68,26.43-70.69,0-59.53-48.43-107.97-107.96-107.97-46.45,0-86.13,29.48-101.34,70.71h22.65c13.99-29.42,44-49.82,78.69-49.82,48.01,0,87.07,39.06,87.07,87.07,0,21.25-7.66,40.74-20.35,55.87l-4.71-4.71h0s-4.7-4.71-4.7-4.71l-17.72,17.72,4.71,4.71,3.72,3.72c-13.77,9.14-30.28,14.47-48.01,14.47-29.76,0-56.07-15.01-71.78-37.85v31.35c19.09,17.03,44.25,27.39,71.78,27.39,23.5,0,45.27-7.55,63.02-20.35l16.06,16.06c2.44,2.44,6.43,2.44,8.86,0l8.85-8.85c2.44-2.44,2.44-6.43,0-8.87l-15.26-15.26Z"/>
  <path class="cls-1" d="M143.41,200.42h-39.42l-9.33,24.52h-21.66l41.22-105.31h9.33c6.52,0,10.93,3.01,13.24,9.03l37.46,96.28h-21.66l-9.18-24.52ZM109.56,182.97h28.28l-13.99-37.91h-.15l-14.14,37.91Z"/>
  <path class="cls-1" d="M232.13,119.63v29.08c-10.3-.01-20.59-.03-30.89-.04-13.79,0-25.07,11.28-25.07,25.07v26.13c0,13.79,11.28,25.07,25.07,25.07h51.35v-105.31h-20.46ZM232.13,206.46h-25.06c-6.9,0-12.54-5.64-12.54-12.54v-15.11c0-6.9,5.64-12.54,12.54-12.54h25.06v40.19Z"/>
  <path class="cls-1" d="M318.84,119.63v29.08c-10.3-.01-20.59-.03-30.89-.04-13.79,0-25.07,11.28-25.07,25.07v26.13c0,13.79,11.28,25.07,25.07,25.07h51.35v-105.31h-20.46ZM318.84,206.46h-25.06c-6.9,0-12.54-5.64-12.54-12.54v-15.11c0-6.9,5.64-12.54,12.54-12.54h25.06v40.19Z"/>
  <path class="cls-1" d="M409.36,139.05h-30.05c-2.29,0-4.14-1.97-4.14-4.39s1.85-4.39,4.14-4.39h30.05c2.29,0,4.14,1.97,4.14,4.39s-1.85,4.39-4.14,4.39Z"/>
  <path class="cls-1" d="M431.79,139.05h-10.61c-2.42,0-4.39-1.97-4.39-4.39s1.96-4.39,4.39-4.39h10.61c2.42,0,4.39,1.97,4.39,4.39s-1.96,4.39-4.39,4.39Z"/>
  <path class="cls-1" d="M431.79,128.95h-52.24c-2.42,0-4.39-1.97-4.39-4.39s1.96-4.39,4.39-4.39h52.24c2.42,0,4.39,1.97,4.39,4.39s-1.96,4.39-4.39,4.39Z"/>
  <path class="cls-1" d="M431.79,118.98h-52.24c-2.42,0-4.39-1.97-4.39-4.39s1.96-4.39,4.39-4.39h52.24c2.42,0,4.39,1.97,4.39,4.39s-1.96,4.39-4.39,4.39Z"/>
  <path class="cls-1" d="M431.79,109.01h-52.24c-2.42,0-4.39-1.97-4.39-4.39s1.96-4.39,4.39-4.39h52.24c2.42,0,4.39,1.97,4.39,4.39s-1.96,4.39-4.39,4.39Z"/>
  <path class="cls-1" d="M431.79,149.11h-52.24c-2.42,0-4.39-1.97-4.39-4.39s1.96-4.39,4.39-4.39h52.24c2.42,0,4.39,1.97,4.39,4.39s-1.96,4.39-4.39,4.39Z"/>
  <path class="cls-1" d="M537.42,88.2c-2.92-1.64-5.18-3.96-6.78-6.96-1.6-3-2.4-6.46-2.4-10.38s.8-7.38,2.4-10.38c1.6-3,3.86-5.32,6.78-6.96,2.92-1.64,6.3-2.46,10.14-2.46s7.22.82,10.14,2.46c2.92,1.64,5.19,3.96,6.81,6.96,1.62,3,2.43,6.46,2.43,10.38s-.81,7.38-2.43,10.38c-1.62,3-3.89,5.32-6.81,6.96-2.92,1.64-6.3,2.46-10.14,2.46s-7.22-.82-10.14-2.46ZM555.3,84.36c2.24-1.28,3.98-3.09,5.22-5.43,1.24-2.34,1.86-5.03,1.86-8.07s-.62-5.73-1.86-8.07c-1.24-2.34-2.98-4.15-5.22-5.43-2.24-1.28-4.82-1.92-7.74-1.92s-5.5.64-7.74,1.92c-2.24,1.28-3.97,3.09-5.19,5.43-1.22,2.34-1.83,5.03-1.83,8.07s.61,5.73,1.83,8.07c1.22,2.34,2.95,4.15,5.19,5.43,2.24,1.28,4.82,1.92,7.74,1.92s5.5-.64,7.74-1.92ZM539.28,59.88h10.92c1.88,0,3.39.5,4.53,1.5,1.14,1,1.71,2.3,1.71,3.9v2.22c0,1.08-.32,2.02-.96,2.82-.64.8-1.56,1.4-2.76,1.8v.06c.68.36,1.22.84,1.62,1.44.4.6.78,1.42,1.14,2.46l1.68,5.52h-5.34l-1.62-5.28c-.24-.88-.6-1.48-1.08-1.8-.48-.32-1.12-.48-1.92-.48h-2.76v7.56h-5.16v-21.72ZM548.52,69.72c1.84,0,2.76-.74,2.76-2.22v-1.5c0-1.16-.74-1.74-2.22-1.74h-4.62v5.46h4.08Z"/>
</svg>