<svg xmlns="http://www.w3.org/2000/svg" width="300" height="300" viewBox="0 0 300 300">
    <path d="M300 0 L300 300 L0 300 Z" fill="#fff"/>
    <path d="M0 150 L300 150 L300 300 L0 300 Z" fill="#fff" fill-opacity="0.5" />
</svg>
