<!-- Generated by IcoMoon.io -->
<svg version="1.1" xmlns="http://www.w3.org/2000/svg" width="575" height="1024" viewBox="0 0 575 1024">
<title></title>
<g id="icomoon-ignore">
</g>
<path d="M486.14 25.388c16.926 0 33.851 4.231 46.545 16.926 25.388 25.388 25.388 63.471 0 88.86l-376.595 376.595 372.364 380.826c25.388 25.388 25.388 63.471 0 88.86s-63.471 25.388-88.86 0l-423.14-423.14c-25.388-25.388-25.388-63.471 0-88.86l423.14-423.14c12.694-12.694 29.62-16.926 46.545-16.926z"></path>
</svg>
