<!-- Generated by IcoMoon.io -->
<svg version="1.1" xmlns="http://www.w3.org/2000/svg" width="1024" height="1024" viewBox="0 0 1024 1024">
<title></title>
<g id="icomoon-ignore">
</g>
<path d="M534.666 352.865v321.038l-268.454 160.519-267.070-161.903v-321.038l267.070-161.903 268.454 163.286zM479.315 642.076v-258.768l-213.103-128.692-211.719 127.308v260.151l211.719 128.692 213.103-128.692z"></path>
<path d="M1023.142 352.865v321.038l-268.454 160.519-267.070-161.903v-321.038l267.070-161.903 268.454 163.286zM967.791 642.076v-258.768l-213.103-128.692-211.719 128.692v258.768l211.719 128.692 213.103-128.692z"></path>
</svg>
