<!-- Generated by IcoMoon.io -->
<svg version="1.1" xmlns="http://www.w3.org/2000/svg" width="974" height="1024" viewBox="0 0 974 1024">
<title></title>
<g id="icomoon-ignore">
</g>
<path d="M522.805 1024h-72.375c-15.418-0.048-28.394-10.447-32.347-24.61l-0.056-0.237-7.579-27.007c-22.729-3.386-39.967-22.767-39.967-46.175 0-0.095 0-0.191 0.001-0.286v0.015-30.244c0-0.040 0-0.088 0-0.136 0-16.033 12.998-29.031 29.031-29.031 0.048 0 0.095 0 0.143 0h173.899c15.555 0.801 27.888 13.512 28.084 29.147v30.263c0.001 0.081 0.001 0.176 0.001 0.271 0 23.407-17.237 42.789-39.711 46.143l-0.256 0.031-7.579 27.007c-4.111 13.916-16.416 24.041-31.201 24.843l-0.087 0.004zM487.159 155.544c0.058 0 0.127 0.001 0.196 0.001 15.403 0 27.889-12.486 27.889-27.889 0-0.069 0-0.137-0.001-0.206v0.011-99.376c0-0.058 0.001-0.127 0.001-0.196 0-15.403-12.486-27.889-27.889-27.889-0.069 0-0.137 0-0.206 0.001h0.011c-0.254-0.008-0.553-0.013-0.852-0.013-15.047 0-27.245 12.198-27.245 27.245 0 0.3 0.005 0.598 0.014 0.896l-0.001-0.043v99.376c0 0.058-0.001 0.127-0.001 0.196 0 15.403 12.486 27.889 27.889 27.889 0.069 0 0.137 0 0.206-0.001h-0.011zM28.084 515.243h99.376c15.399-0.274 27.809-12.685 28.083-28.058v-0.026c0.008-0.254 0.013-0.553 0.013-0.852 0-15.047-12.198-27.245-27.245-27.245-0.3 0-0.598 0.005-0.896 0.014l0.043-0.001h-99.376c-0.058 0-0.127-0.001-0.196-0.001-15.403 0-27.889 12.486-27.889 27.889 0 0.069 0 0.137 0.001 0.206v-0.011c-0.008 0.254-0.013 0.553-0.013 0.852 0 15.047 12.198 27.245 27.245 27.245 0.3 0 0.598-0.005 0.896-0.014l-0.043 0.001zM946.233 460.152h-99.382c-0.058 0-0.127-0.001-0.196-0.001-15.403 0-27.889 12.486-27.889 27.889 0 0.069 0 0.137 0.001 0.206v-0.011c-0.008 0.254-0.013 0.553-0.013 0.852 0 15.047 12.198 27.245 27.245 27.245 0.3 0 0.598-0.005 0.896-0.014l-0.043 0.001h99.382c0.058 0 0.127 0.001 0.196 0.001 15.403 0 27.889-12.486 27.889-27.889 0-0.069 0-0.137-0.001-0.206v0.011c1.077-16.202-10.805-28.084-28.084-28.084zM251.678 722.634c-4.963-5.005-11.842-8.103-19.444-8.103s-14.481 3.099-19.442 8.102l-0.002 0.002-71.292 70.21c-5.482 4.937-8.914 12.059-8.914 19.983s3.432 15.046 8.89 19.962l0.024 0.021c4.813 5.317 11.74 8.643 19.444 8.643s14.631-3.326 19.424-8.62l0.020-0.022 70.21-70.21c5.578-5.089 9.064-12.389 9.064-20.503 0-7.586-3.047-14.461-7.984-19.466l0.003 0.003zM743.156 261.427c7.685-0.118 14.576-3.421 19.429-8.644l0.016-0.017 70.21-70.21c5.482-4.937 8.914-12.059 8.914-19.983s-3.432-15.046-8.89-19.962l-0.024-0.021c-11.882-10.826-29.167-11.882-39.966 0l-70.21 70.21c-5.482 4.937-8.914 12.059-8.914 19.983s3.432 15.046 8.89 19.962l0.024 0.021c5.262 5.258 12.499 8.539 20.504 8.634h0.018zM211.712 252.766c4.992 4.76 11.767 7.688 19.226 7.688 15.4 0 27.884-12.484 27.884-27.884 0-7.727-3.143-14.719-8.22-19.769l-70.211-70.216c-4.937-5.482-12.059-8.914-19.983-8.914s-15.046 3.432-19.962 8.89l-0.021 0.024c-5.482 4.937-8.914 12.059-8.914 19.983s3.432 15.046 8.89 19.962l0.024 0.021zM762.6 722.634c-4.937-5.482-12.059-8.914-19.983-8.914s-15.046 3.432-19.962 8.89l-0.021 0.024c-10.826 11.882-11.882 29.167 0 39.966l70.21 70.21c5.040 5.014 11.99 8.113 19.663 8.113 15.4 0 27.884-12.484 27.884-27.884 0-7.941-3.319-15.106-8.646-20.185l-0.011-0.011zM223.594 493.655c-0.006-0.64-0.009-1.396-0.009-2.153 0-143.85 115.689-260.678 259.102-262.52l0.174-0.002h2.165c144.744 0 263.56 116.661 263.56 261.4-0.256 70.517-28.206 134.457-73.533 181.552l0.081-0.084c-25.916 26.517-43.777 61.009-49.564 99.454l-0.124 0.999c-5.509 32.511-33.344 56.999-66.946 57.25h-144.793c-0.101 0.001-0.221 0.001-0.341 0.001-33.642 0-61.527-24.648-66.583-56.871l-0.049-0.381c-6.164-39.385-23.973-73.813-49.74-100.508l0.052 0.054c-44.596-46.198-72.403-108.858-73.45-178.006l-0.002-0.204zM416.944 556.302h61.586c0.050 0.477 0.079 1.030 0.079 1.59 0 2.158-0.427 4.217-1.201 6.095l0.039-0.107c-4.331 23.764-8.661 48.605-14.042 72.37-2.165 14.042-5.413 27.007-7.579 41.049-1.083 4.331-2.165 8.661 3.248 10.826s7.579-2.165 9.744-6.496v-1.083c31.326-55.090 63.73-109.098 95.056-164.183 5.413-9.744 3.248-14.042-7.579-14.042h-61.581c-0.050-0.477-0.079-1.030-0.079-1.59 0-2.158 0.427-4.217 1.201-6.095l-0.039 0.107c4.331-23.764 8.661-48.605 14.042-72.37 2.165-14.042 5.413-27.007 7.579-41.049 1.083-4.331 2.165-8.661-3.248-10.826s-7.579 2.165-9.744 6.496v1.083c-31.31 55.074-63.719 109.082-95.040 164.167-5.402 8.645-3.243 14.042 7.557 14.042z"></path>
</svg>
