<!-- Generated by IcoMoon.io -->
<svg version="1.1" xmlns="http://www.w3.org/2000/svg" width="1639" height="1024" viewBox="0 0 1639 1024">
<title></title>
<g id="icomoon-ignore">
</g>
<path d="M1633.502 286.249c1.091 0.385 2.15 0.963 5.071 2.247-5.231 2.118-9.083 3.787-12.838 5.231-69.966 25.515-139.867 51.126-209.961 76.32-7.157 2.568-9.628 5.905-9.628 13.576q0.385 192.566 0.193 385.131c0 3.209 0.353 6.226 0.674 10.976h21.985v244.334h-91.982v-244.526h33.346v-393.861c-5.713 1.894-10.784 3.466-15.79 5.263q-262.563 94.165-525.191 188.072c-2.949 1.041-6.349 1.643-9.89 1.643-3.288 0-6.455-0.519-9.423-1.479l0.216 0.061q-398.9-144.007-797.543-288.688c-3.723-1.348-7.35-2.921-12.838-5.039 4.91-1.99 8.28-3.498 11.747-4.718q398.515-139.706 797.126-279.22c2.846-1.090 6.137-1.721 9.576-1.721 2.635 0 5.183 0.371 7.596 1.062l-0.194-0.048q404.067 142.499 807.749 285.382z"></path>
<path d="M318.536 490.529l122.311 44.194q178.669 64.606 357.37 128.923c3.354 1.135 7.217 1.79 11.233 1.79s7.879-0.655 11.488-1.864l-0.255 0.074q238.075-84.697 475.766-170.1c4.814-1.733 9.628-3.209 15.534-5.167 0.257 4.333 0.578 7.735 0.578 11.137 0 78.92 0 157.872 0.289 236.824 0.020 0.35 0.032 0.758 0.032 1.17 0 7.371-3.709 13.876-9.362 17.75l-0.073 0.048c-46.119 35.593-97.567 61.717-150.843 84.119-106.521 44.675-217.407 71.185-333.139 72.341-101.739 0.995-200.429-18.679-295.877-53.95-75.594-27.78-141.023-63.262-200.27-106.681l2.249 1.572c-4.063-3.038-6.88-7.551-7.657-12.731l-0.013-0.107c-0.449-81.327-0.289-162.654-0.257-243.917 0.218-2.080 0.535-3.926 0.959-5.731l-0.061 0.307z"></path>
</svg>
