<!-- Generated by IcoMoon.io -->
<svg version="1.1" xmlns="http://www.w3.org/2000/svg" width="1013" height="1024" viewBox="0 0 1013 1024">
<title></title>
<g id="icomoon-ignore">
</g>
<path d="M0 68.119h505.679v955.881h-505.679v-955.881z"></path>
<path d="M160.679 0h184.344v68.119h-184.344v-68.119z"></path>
<path d="M96.896 148.538h325.762v44.728h-325.762v-44.728z"></path>
<path d="M96.896 253.946h325.762v44.728h-325.762v-44.728z"></path>
<path d="M96.896 359.331h325.762v44.728h-325.762v-44.728z"></path>
<path d="M633.61 305.041h379.253v716.905h-379.253v-716.905z"></path>
<path d="M754.125 253.946h138.246v51.095h-138.246v-51.095z"></path>
<path d="M706.293 365.356h244.316v33.546h-244.316v-33.546z"></path>
<path d="M706.293 444.406h244.316v33.546h-244.316v-33.546z"></path>
<path d="M706.293 523.456h244.316v33.546h-244.316v-33.546z"></path>
</svg>
