<!-- Generated by IcoMoon.io -->
<svg version="1.1" xmlns="http://www.w3.org/2000/svg" width="1024" height="1024" viewBox="0 0 1024 1024">
<title></title>
<g id="icomoon-ignore">
</g>
<path d="M722.887 601.774c32.829-53.239 52.276-117.759 52.276-186.828 0-198.798-161.146-359.943-359.943-359.943s-359.943 161.146-359.943 359.943c0 198.798 161.146 359.943 359.943 359.943 68.92 0 133.324-19.376 188.050-52.965l-1.555 0.899 244.234 244.172 121.113-121.176zM416.057 638.183c-122.612-0.044-222.001-99.449-222.001-222.064 0-122.65 99.417-222.064 222.064-222.064s222.064 99.417 222.064 222.064c0 0.051 0 0.098 0 0.128v-0.006c-0.268 122.54-99.578 221.784-222.118 221.939h-0.009z"></path>
</svg>
